…
nd_join

## # A tibble: 730 x 5
##    date          nky    dji    nky_r     dji_r
##    <date>      <dbl>  <dbl>    <dbl>     <dbl>
##  1 2018-01-04 23506. 24923.  0        0       
##  2 2018-01-05 23715. 25075.  0.00882  0.00610 
##  3 2018-01-09 23850. 25283   0.00570  0.00826 
##  4 2018-01-10 23788. 25386. -0.00259  0.00406 
##  5 2018-01-11 23710. 25369. -0.00327 -0.000657
##  6 2018-01-12 23654. 25575. -0.00239  0.00807 
##  7 2018-01-16 23952. 25803.  0.0125   0.00889 
##  8 2018-01-17 23868. 25793. -0.00349 -0.000400
##  9 2018-01-18 23763. 26116. -0.00441  0.0124  
## 10 2018-01-19 23808. 26018.  0.00188 -0.00375 
## # ... with 720 more rows
…
