…
<img src="{{< blogdown/postref >}}index_files/figure-html/visualize-1.png" width="672" />

やっぱ真ん中っぽい3.5が多いんですね。あとは1.0,2.0,3.0,4.0,5.0が周辺に比べて多いのと3.1、3.3、…といった奇数/10より3.2、3.4、…といった偶数/10のほうが若干多いように見える。

上位作品を確認。レビュー数が少ないものが上位にくるのでこのままではダメ。

#scoreを降順にする
ranking <- target %>% 
  arrange(desc(score)) 

ranking %>% 
  as_tibble()

## # A tibble: 1,464 x 2
##    title                                  score
##    <chr>                                  <dbl>
##  1 僕が跳びはねる理由                         5
##  2 スモーキー・アンド・ビター                 5
##  3 Critical Thinking（原題）                  5
##  4 Spaceship Earth（原題）                    5
##  5 女優たち                                   5
##  6 Uppercase Print（英題）                    5
##  7 「二人の世界」                             5
##  8 白骨街道                                   5
##  9 極道の門 第七部                            5
## 10 The Earth Is Blue as an Orange（原題）     5
## # ... with 1,454 more rows
…
