…
<img src="{{< blogdown/postref >}}index_files/figure-html/unnamed-chunk-7-1.png" width="672" />

だいぶ作品数減った。やはり最頻値は3.5。0が3件あるのは未公開の作品になぜかマークしてる人が100人超いたから。

p1 <- ggplot(data_clean,aes(x=score,y=marks))
p1 + geom_point()

<img src="{{< blogdown/postref >}}index_files/figure-html/unnamed-chunk-8-1.png" width="672" />

スコアとマークの散布図。2トップはテネットと鬼滅。1万人以上にレビューされて3点未満の作品もあるのね。

data_over100 %>% 
  arrange(desc(score))

## # A tibble: 442 x 4
##    title                                              marks clips score
##    <chr>                                              <dbl> <dbl> <dbl>
##  1 ハミルトン                                           240   953   4.5
##  2 KING OF PRISM ALL STARS プリズムショー☆ベストテン    391    98   4.5
##  3 劇場版 ヴァイオレット・エヴァーガーデン            16702 17120   4.4
##  4 BREAK THE SILENCE: THE MOVIE                        1275   471   4.3
##  5 Reframe THEATER EXPERIENCE with you                  659   354   4.3
##  6 蒼穹のファフナー THE BEYOND 第七話・第八話・第九話   128    96   4.3
##  7 ミッドナイトスワン                                 15050 29399   4.2
##  8 僕たちの嘘と真実 Documentary of 欅坂46              3480  1950   4.2
##  9 オクトパスの神秘: 海の賢者は語る                     214   147   4.2
## 10 映画 ギヴン                                          837   935   4.2
## # ... with 432 more rows

data_over100 %>% 
  arrange(score)

## # A tibble: 442 x 4
##    title                                  marks clips score
##    <chr>                                  <dbl> <dbl> <dbl>
##  1 キングスマン：ファースト・エージェント   433 59474   0  
##  2 シン・エヴァンゲリオン劇場版             342 26151   0  
##  3 トップガン マーヴェリック                130 15400   0  
##  4 マーク・オブ・ザ・デビル                 234    44   2.2
##  5 君は彼方                                 136   642   2.2
##  6 Le Cerveau - セルヴォ -                  117     7   2.2
##  7 別れる前にしておくべき10のこと           207   200   2.5
##  8 巨蟲列島                                 122   106   2.5
##  9 シグナル100                             2894  2608   2.6
## 10 『犬鳴村』恐怖回避ばーじょん 劇場版      328   508   2.6
## # ... with 432 more rows
…
